…
## What is mean total number of steps taken per day?

```r
## Included R packages necessary for processing
library(dplyr)

## Calculate the total number of steps taken per day
s1 <- group_by (actData, date)
stepsperday <- summarize(s1, stepsTotal = sum(steps, na.rm = TRUE))
print(stepsperday)
```

```
## # A tibble: 61 x 2
##          date stepsTotal
##        <date>      <int>
##  1 2012-10-01          0
##  2 2012-10-02        126
##  3 2012-10-03      11352
##  4 2012-10-04      12116
##  5 2012-10-05      13294
##  6 2012-10-06      15420
##  7 2012-10-07      11015
##  8 2012-10-08          0
##  9 2012-10-09      12811
## 10 2012-10-10       9900
## # ... with 51 more rows
```
…
```
## [1] 9354.23
```

## What is the average daily activity pattern?

```r
## Make a time series plot (i.e. type = "l") of the 5-minute interval (x-axis) and the average number of steps taken, averaged across all days (y-axis)
s2 <- group_by (actData, interval)
avgstepsperInterval <- summarize(s2, avgs = mean(steps, na.rm = TRUE))
print(avgstepsperInterval)
```

```
## # A tibble: 288 x 2
##    interval      avgs
##       <int>     <dbl>
##  1        0 1.7169811
##  2        5 0.3396226
##  3       10 0.1320755
##  4       15 0.1509434
##  5       20 0.0754717
##  6       25 2.0943396
##  7       30 0.5283019
##  8       35 0.8679245
##  9       40 0.0000000
## 10       45 1.4716981
## # ... with 278 more rows
```
…
```r
## Make a histogram of the total number of steps taken each day and Calculate and report the mean and median total number of steps taken per day. Do these values differ from the estimates from the first part of the assignment? What is the impact of imputing missing data on the estimates of the total daily number of steps?

s3 <- group_by(refData, date)
refStepsperday <- summarize(s3, ST = sum(steps))
print(refStepsperday)
```

```
## # A tibble: 61 x 2
##          date       ST
##        <date>    <dbl>
##  1 2012-10-01 10766.19
##  2 2012-10-02   126.00
##  3 2012-10-03 11352.00
##  4 2012-10-04 12116.00
##  5 2012-10-05 13294.00
##  6 2012-10-06 15420.00
##  7 2012-10-07 11015.00
##  8 2012-10-08 10766.19
##  9 2012-10-09 12811.00
## 10 2012-10-10  9900.00
## # ... with 51 more rows
```
…
